/home/local/ZOHOCORP/ramesh-pt6451/IdeaProjects/InNoice/src/main/java/com/product/innoice/servlets/CustomerServlet.java
/home/local/ZOHOCORP/ramesh-pt6451/IdeaProjects/InNoice/src/main/java/com/product/innoice/servlets/ProductServlet.java
/home/local/ZOHOCORP/ramesh-pt6451/IdeaProjects/InNoice/src/main/java/com/product/innoice/models/Customer.java
/home/local/ZOHOCORP/ramesh-pt6451/IdeaProjects/InNoice/src/main/java/com/product/innoice/filters/NoAuthFilter.java
/home/local/ZOHOCORP/ramesh-pt6451/IdeaProjects/InNoice/src/main/java/com/product/innoice/models/Invoice.java
/home/local/ZOHOCORP/ramesh-pt6451/IdeaProjects/InNoice/src/main/java/com/product/innoice/db/SessionsDataAccessor.java
/home/local/ZOHOCORP/ramesh-pt6451/IdeaProjects/InNoice/src/main/java/com/product/innoice/models/InvoicedProduct.java
/home/local/ZOHOCORP/ramesh-pt6451/IdeaProjects/InNoice/src/main/java/com/product/innoice/servlets/UserServlet.java
/home/local/ZOHOCORP/ramesh-pt6451/IdeaProjects/InNoice/src/main/java/com/product/innoice/servlets/ProductsServlet.java
/home/local/ZOHOCORP/ramesh-pt6451/IdeaProjects/InNoice/src/main/java/com/product/innoice/servlets/InvoicesServlet.java
/home/local/ZOHOCORP/ramesh-pt6451/IdeaProjects/InNoice/src/main/java/com/product/innoice/Main.java
/home/local/ZOHOCORP/ramesh-pt6451/IdeaProjects/InNoice/src/main/java/com/product/innoice/servlets/CustomersServlet.java
/home/local/ZOHOCORP/ramesh-pt6451/IdeaProjects/InNoice/src/main/java/com/product/innoice/models/Product.java
/home/local/ZOHOCORP/ramesh-pt6451/IdeaProjects/InNoice/src/main/java/com/product/innoice/db/DataAccessor.java
/home/local/ZOHOCORP/ramesh-pt6451/IdeaProjects/InNoice/src/main/java/com/product/innoice/db/CustomersDataAccessor.java
/home/local/ZOHOCORP/ramesh-pt6451/IdeaProjects/InNoice/src/main/java/com/product/innoice/db/ProductsDataAccessor.java
/home/local/ZOHOCORP/ramesh-pt6451/IdeaProjects/InNoice/src/main/java/com/product/innoice/filters/AuthFilter.java
/home/local/ZOHOCORP/ramesh-pt6451/IdeaProjects/InNoice/src/main/java/com/product/innoice/servlets/SessionServlet.java
/home/local/ZOHOCORP/ramesh-pt6451/IdeaProjects/InNoice/src/main/java/com/product/innoice/models/User.java
/home/local/ZOHOCORP/ramesh-pt6451/IdeaProjects/InNoice/src/main/java/com/product/innoice/db/InvoicesDataAccessor.java
/home/local/ZOHOCORP/ramesh-pt6451/IdeaProjects/InNoice/src/main/java/com/product/innoice/db/UsersDataAccessor.java
